<define-tag pagetitle>DSA-4967-1 squashfs-tools</define-tag>
<define-tag report_date>2021-9-04</define-tag>
<define-tag secrefs>CVE-2021-40153</define-tag>
<define-tag packages>squashfs-tools</define-tag>
<define-tag isvulnerable>yes</define-tag>
<define-tag fixed>yes</define-tag>
<define-tag fixed-section>no</define-tag>

#use wml::debian::security



</dl>
