<define-tag pagetitle>DSA-4866-1 thunderbird</define-tag>
<define-tag report_date>2021-2-28</define-tag>
<define-tag secrefs>CVE-2021-23968 CVE-2021-23969 CVE-2021-23973 CVE-2021-23978</define-tag>
<define-tag packages>thunderbird</define-tag>
<define-tag isvulnerable>yes</define-tag>
<define-tag fixed>yes</define-tag>
<define-tag fixed-section>no</define-tag>

#use wml::debian::security



</dl>
