<define-tag pagetitle>DSA-4864-1 python-aiohttp</define-tag>
<define-tag report_date>2021-2-27</define-tag>
<define-tag secrefs>CVE-2021-21330</define-tag>
<define-tag packages>python-aiohttp</define-tag>
<define-tag isvulnerable>yes</define-tag>
<define-tag fixed>yes</define-tag>
<define-tag fixed-section>no</define-tag>

#use wml::debian::security



</dl>
