<define-tag pagetitle>DSA-4859-1 libzstd</define-tag>
<define-tag report_date>2021-2-20</define-tag>
<define-tag secrefs>Bug#982519</define-tag>
<define-tag packages>libzstd</define-tag>
<define-tag isvulnerable>yes</define-tag>
<define-tag fixed>yes</define-tag>
<define-tag fixed-section>no</define-tag>

#use wml::debian::security



</dl>
