<define-tag pagetitle>DSA-4828-1 libxstream-java</define-tag>
<define-tag report_date>2021-1-07</define-tag>
<define-tag secrefs>CVE-2020-26258 CVE-2020-26259</define-tag>
<define-tag packages>libxstream-java</define-tag>
<define-tag isvulnerable>yes</define-tag>
<define-tag fixed>yes</define-tag>
<define-tag fixed-section>no</define-tag>

#use wml::debian::security



</dl>
