<define-tag pagetitle>DSA-4598-1 python-django</define-tag>
<define-tag report_date>2020-1-07</define-tag>
<define-tag secrefs>CVE-2019-19844 Bug#946937</define-tag>
<define-tag packages>python-django</define-tag>
<define-tag isvulnerable>yes</define-tag>
<define-tag fixed>yes</define-tag>
<define-tag fixed-section>no</define-tag>

#use wml::debian::security



</dl>
