<define-tag pagetitle>DSA-4726-1 nss</define-tag>
<define-tag report_date>2020-7-17</define-tag>
<define-tag secrefs>CVE-2019-17006 CVE-2019-17023 CVE-2020-12399 CVE-2020-12402</define-tag>
<define-tag packages>nss</define-tag>
<define-tag isvulnerable>yes</define-tag>
<define-tag fixed>yes</define-tag>
<define-tag fixed-section>no</define-tag>

#use wml::debian::security



</dl>
