<define-tag pagetitle>DSA-4700-1 roundcube</define-tag>
<define-tag report_date>2020-6-11</define-tag>
<define-tag secrefs>CVE-2020-13964 CVE-2020-13965 Bug#962123 Bug#962124</define-tag>
<define-tag packages>roundcube</define-tag>
<define-tag isvulnerable>yes</define-tag>
<define-tag fixed>yes</define-tag>
<define-tag fixed-section>no</define-tag>

#use wml::debian::security



</dl>
