<define-tag pagetitle>DLA-2871-1 lxml</define-tag>
<define-tag report_date>2021-12-30</define-tag>
<define-tag secrefs>CVE-2021-43818 Bug#1001885</define-tag>
<define-tag packages>lxml</define-tag>
<define-tag isvulnerable>yes</define-tag>
<define-tag fixed>yes</define-tag>
<define-tag fixed-section>no</define-tag>

#use wml::debian::security

