<define-tag pagetitle>DLA-2803-1 libsdl2</define-tag>
<define-tag report_date>2021-10-31</define-tag>
<define-tag secrefs>CVE-2017-2888 CVE-2019-7637 Bug#878264</define-tag>
<define-tag packages>libsdl2</define-tag>
<define-tag isvulnerable>yes</define-tag>
<define-tag fixed>yes</define-tag>
<define-tag fixed-section>no</define-tag>

#use wml::debian::security

