<define-tag pagetitle>DLA-2742-2 ffmpeg</define-tag>
<define-tag report_date>2021-08-22</define-tag>
<define-tag packages>ffmpeg</define-tag>
<define-tag isvulnerable>yes</define-tag>
<define-tag fixed>yes</define-tag>
<define-tag fixed-section>no</define-tag>

#use wml::debian::security

