<define-tag pagetitle>DLA-1038-1 libtasn1-3</define-tag>
<define-tag report_date>2017-7-24</define-tag>
<define-tag secrefs>CVE-2017-10790</define-tag>
<define-tag packages>libtasn1-3</define-tag>
<define-tag isvulnerable>yes</define-tag>
<define-tag fixed>yes</define-tag>
<define-tag fixed-section>no</define-tag>

#use wml::debian::security

