<define-tag pagetitle>DLA-1210-1 kildclient</define-tag>
<define-tag report_date>2017-12-16</define-tag>
<define-tag secrefs>CVE-2017-17511</define-tag>
<define-tag packages>kildclient</define-tag>
<define-tag isvulnerable>yes</define-tag>
<define-tag fixed>yes</define-tag>
<define-tag fixed-section>no</define-tag>

#use wml::debian::security

