<define-tag pagetitle>DLA-1214-1 libreoffice</define-tag>
<define-tag report_date>2017-12-20</define-tag>
<define-tag secrefs>CVE-2017-12607 CVE-2017-12608</define-tag>
<define-tag packages>libreoffice</define-tag>
<define-tag isvulnerable>yes</define-tag>
<define-tag fixed>yes</define-tag>
<define-tag fixed-section>no</define-tag>

#use wml::debian::security

