<define-tag pagetitle>DLA-948-1 dropbear</define-tag>
<define-tag report_date>2017-5-21</define-tag>
<define-tag secrefs>CVE-2017-9079</define-tag>
<define-tag packages>dropbear</define-tag>
<define-tag isvulnerable>yes</define-tag>
<define-tag fixed>yes</define-tag>
<define-tag fixed-section>no</define-tag>

#use wml::debian::security

