<define-tag pagetitle>DLA-1211-1 libxml2</define-tag>
<define-tag report_date>2017-12-18</define-tag>
<define-tag secrefs>CVE-2017-15412</define-tag>
<define-tag packages>libxml2</define-tag>
<define-tag isvulnerable>yes</define-tag>
<define-tag fixed>yes</define-tag>
<define-tag fixed-section>no</define-tag>

#use wml::debian::security

