<define-tag pagetitle>DLA-969-1 tiff</define-tag>
<define-tag report_date>2017-5-30</define-tag>
<define-tag secrefs>CVE-2016-3658 CVE-2016-10371 Bug#862929</define-tag>
<define-tag packages>tiff</define-tag>
<define-tag isvulnerable>yes</define-tag>
<define-tag fixed>yes</define-tag>
<define-tag fixed-section>no</define-tag>

#use wml::debian::security

