<define-tag pagetitle>DLA-1116-1 poppler</define-tag>
<define-tag report_date>2017-9-27</define-tag>
<define-tag secrefs>CVE-2017-14517 CVE-2017-14519 CVE-2017-14617 Bug#876086 Bug#876385 Bug#876079</define-tag>
<define-tag packages>poppler</define-tag>
<define-tag isvulnerable>yes</define-tag>
<define-tag fixed>yes</define-tag>
<define-tag fixed-section>no</define-tag>

#use wml::debian::security

