<define-tag pagetitle>DLA-2160-1 php5</define-tag>
<define-tag report_date>2020-3-26</define-tag>
<define-tag secrefs>CVE-2020-7062 CVE-2020-7063</define-tag>
<define-tag packages>php5</define-tag>
<define-tag isvulnerable>yes</define-tag>
<define-tag fixed>yes</define-tag>
<define-tag fixed-section>no</define-tag>

#use wml::debian::security

