<define-tag pagetitle>DLA-2473-1 vips</define-tag>
<define-tag report_date>2020-11-30</define-tag>
<define-tag secrefs>CVE-2020-20739</define-tag>
<define-tag packages>vips</define-tag>
<define-tag isvulnerable>yes</define-tag>
<define-tag fixed>yes</define-tag>
<define-tag fixed-section>no</define-tag>

#use wml::debian::security

