<define-tag pagetitle>DLA-2313-1 net-snmp</define-tag>
<define-tag report_date>2020-08-04</define-tag>
<define-tag secrefs>CVE-2020-15861 CVE-2020-15862</define-tag>
<define-tag packages>net-snmp</define-tag>
<define-tag isvulnerable>yes</define-tag>
<define-tag fixed>yes</define-tag>
<define-tag fixed-section>no</define-tag>

#use wml::debian::security
