<define-tag pagetitle>DLA-1352-1 jruby</define-tag>
<define-tag report_date>2018-4-17</define-tag>
<define-tag secrefs>CVE-2018-1000074</define-tag>
<define-tag packages>jruby</define-tag>
<define-tag isvulnerable>yes</define-tag>
<define-tag fixed>yes</define-tag>
<define-tag fixed-section>no</define-tag>

#use wml::debian::security

