<define-tag pagetitle>DLA-1327-1 thunderbird</define-tag>
<define-tag report_date>2018-3-29</define-tag>
<define-tag secrefs>CVE-2018-5125 CVE-2018-5127 CVE-2018-5129 CVE-2018-5144 CVE-2018-5145 CVE-2018-5146</define-tag>
<define-tag packages>thunderbird</define-tag>
<define-tag isvulnerable>yes</define-tag>
<define-tag fixed>yes</define-tag>
<define-tag fixed-section>no</define-tag>

#use wml::debian::security

