<define-tag pagetitle>DLA-1273-1 simplesamlphp</define-tag>
<define-tag report_date>2018-2-9</define-tag>
<define-tag secrefs>CVE-2017-18121 CVE-2017-18122 CVE-2018-6521 Bug#889286</define-tag>
<define-tag packages>simplesamlphp</define-tag>
<define-tag isvulnerable>yes</define-tag>
<define-tag fixed>yes</define-tag>
<define-tag fixed-section>no</define-tag>

#use wml::debian::security

