<define-tag pagetitle>DSA-4428-1 systemd</define-tag>
<define-tag report_date>2019-4-08</define-tag>
<define-tag secrefs>CVE-2019-3842</define-tag>
<define-tag packages>systemd</define-tag>
<define-tag isvulnerable>yes</define-tag>
<define-tag fixed>yes</define-tag>
<define-tag fixed-section>no</define-tag>

#use wml::debian::security



</dl>
