<define-tag pagetitle>DSA-4565-1 intel-microcode</define-tag>
<define-tag report_date>2019-11-13</define-tag>
<define-tag secrefs>CVE-2019-11135 CVE-2019-11139</define-tag>
<define-tag packages>intel-microcode</define-tag>
<define-tag isvulnerable>yes</define-tag>
<define-tag fixed>yes</define-tag>
<define-tag fixed-section>no</define-tag>

#use wml::debian::security



</dl>
