<define-tag pagetitle>DSA-4558-1 webkit2gtk</define-tag>
<define-tag report_date>2019-11-04</define-tag>
<define-tag secrefs>CVE-2019-8625 CVE-2019-8720 CVE-2019-8769 CVE-2019-8771</define-tag>
<define-tag packages>webkit2gtk</define-tag>
<define-tag isvulnerable>yes</define-tag>
<define-tag fixed>yes</define-tag>
<define-tag fixed-section>no</define-tag>

#use wml::debian::security



</dl>
