<define-tag pagetitle>DLA-1986-1 ruby-haml</define-tag>
<define-tag report_date>2019-11-10</define-tag>
<define-tag secrefs>CVE-2017-1002201</define-tag>
<define-tag packages>ruby-haml</define-tag>
<define-tag isvulnerable>yes</define-tag>
<define-tag fixed>yes</define-tag>
<define-tag fixed-section>no</define-tag>

#use wml::debian::security

