<define-tag pagetitle>DLA-1932-1 openssl</define-tag>
<define-tag report_date>2019-9-25</define-tag>
<define-tag secrefs>CVE-2019-1547 CVE-2019-1563</define-tag>
<define-tag packages>openssl</define-tag>
<define-tag isvulnerable>yes</define-tag>
<define-tag fixed>yes</define-tag>
<define-tag fixed-section>no</define-tag>

#use wml::debian::security

