<define-tag pagetitle>DLA-1981-1 cpio</define-tag>
<define-tag report_date>2019-11-05</define-tag>
<define-tag secrefs>CVE-2019-14866 Bug##941412</define-tag>
<define-tag packages>cpio</define-tag>
<define-tag isvulnerable>yes</define-tag>
<define-tag fixed>yes</define-tag>
<define-tag fixed-section>no</define-tag>

#use wml::debian::security

