<define-tag pagetitle>DLA-642-1 ruby-activerecord-3.2</define-tag>
<define-tag report_date>2016-9-30</define-tag>
<define-tag secrefs>CVE-2016-0753</define-tag>
<define-tag packages>ruby-activerecord-3.2</define-tag>
<define-tag isvulnerable>yes</define-tag>
<define-tag fixed>yes</define-tag>
<define-tag fixed-section>no</define-tag>

#use wml::debian::security

