<define-tag pagetitle>DLA-560-2 cacti</define-tag>
<define-tag report_date>2016-9-1</define-tag>
<define-tag packages>cacti</define-tag>
<define-tag isvulnerable>yes</define-tag>
<define-tag fixed>yes</define-tag>
<define-tag fixed-section>no</define-tag>

#use wml::debian::security

