<define-tag pagetitle>DLA-738-1 spip</define-tag>
<define-tag report_date>2016-12-8</define-tag>
<define-tag secrefs>CVE-2016-9152 Bug#847156</define-tag>
<define-tag packages>spip</define-tag>
<define-tag isvulnerable>yes</define-tag>
<define-tag fixed>yes</define-tag>
<define-tag fixed-section>no</define-tag>

#use wml::debian::security

